{
    "jobs": [
        {
            "title": "Entry level Software Engineer",
            "location": "Charlotte, NC",
            "desc": "Basic coding experience or Basic knowledge of software programming or knowledge of any programming and Good analytical and problem-solving abilities.",
            "salary": "$50000 -$60000",
            "dateposted": "11/13/19",
            "recruiter": "John",
            "jobid": "0"
        },
        {
            "title": "Junior Java developer",
            "location": "Mathews, NC",
            "desc": "Basic coding experience or Basic knowledge of software programming or knowledge of any programming and Good analytical and problem-solving abilities.",
            "salary": "$50000 -$60000",
            "dateposted": "11/13/19",
            "recruiter": "John",
            "jobid": "1"
        },
        {
            "title": "Junior Salesforce Developer",
            "location": "Fayetteville, NC",
            "desc": "Basic coding experience or Basic knowledge of software programming or knowledge of any programming and Good analytical and problem-solving abilities.",
            "salary": "$50000 -$60000",
            "dateposted": "11/13/19",
            "recruiter": "John",
            "jobid": 3
        },
        {
            "title": "Full-Stack Developer",
            "location": "Matthews, NC",
            "desc": "Must be an expert at all things JavaScript, including frameworks and object oriented programming (OOP).",
            "salary": "$50000 -$60000",
            "dateposted": "11/14/19",
            "recruiter": "Abraham",
            "jobid": "3"
        },
        {
            "title": "SAS Developer",
            "location": "Cary, NC",
            "desc": "Must be an expert at all things SAS, including frameworks and object oriented programming (OOP).",
            "salary": "$60000 -$70000",
            "dateposted": "11/13/19",
            "recruiter": "Tracy",
            "jobid":
            
        },
        {
            "title": "Salesforce Developer",
            "location": "Charlotte, NC",
            "desc": "Must be an expert at all things salesforce, including frameworks and object oriented programming (OOP).",
            "salary": "$50000 -$60000",
            "dateposted": "11/15/19",
            "recruiter": "Ellen",
            "jobid": 6
        },
        {
            "title": "Junior Salesforce Developer",
            "location": "Fayetteville, NC",
            "desc": "Must be an expert at all things JavaScript, including frameworks and object oriented programming (OOP).",
            "salary": "$50000 -$55000",
            "dateposted": "11/17/19",
            "recruiter": "Tracy",
            "jobid": 7
        }
    ],
    "applicants": [
        {
            "firstname": "vivian",
            "lastname": "banker",
            "email": "viv.bank@gmail.com",
            "primaryphone": "9876543217",
            "secondaryphone": "",
            "linkedinprofile": "https://www.linkedin.com/vivian",
            "resume": {}
        },
        {
            "firstname": "Barbara",
            "lastname": "tuck",
            "email": "barbara.tuck@gmail.com",
            "primaryphone": "9876733217",
            "secondaryphone": "",
            "linkedinprofile": "https://www.linkedin.com/Barbara",
            "resume": {}
        },
        {
            "firstname": "Mary",
            "lastname": "kom",
            "email": "mary.kom@gmail.com",
            "primaryphone": "7895456523",
            "secondaryphone": "7895456523",
            "linkedinprofile": "https://www.linkedin.com/mary",
            "resume": "C:\\fakepath\\applicant-project-export.json"
       }
    ]
}